<svg width="277" height="65" viewBox="0 0 277 65" fill="none" xmlns="http://www.w3.org/2000/svg">
<path d="M9.42979 65V55.7143H37.7192V65H9.42979ZM0 55.7143V9.28571H9.42979V55.7143H0ZM37.7192 55.7143V9.28571H47.1489V55.7143H37.7192ZM9.42979 9.28571V0H37.7192V9.28571H9.42979Z" fill="#DCDCDC"/>
<path d="M95.1819 65V37.1429H104.612V65H95.1819ZM95.1819 27.8571V9.28571H104.612V27.8571H95.1819ZM57.4628 65V0H95.1819V9.28571H66.8926V27.8571H95.1819V37.1429H66.8926V65H57.4628Z" fill="#DCDCDC"/>
<path d="M124.355 65V55.7143H152.645V65H124.355ZM152.645 55.7143V46.4286H162.074V55.7143H152.645ZM114.926 55.7143V9.28571H124.355V55.7143H114.926ZM152.645 18.5714V9.28571H162.074V18.5714H152.645ZM124.355 9.28571V0H152.645V9.28571H124.355Z" fill="#DCDCDC"/>
<path d="M172.388 65V9.28571H181.818V27.8571H210.107V9.28571H219.537V65H210.107V37.1429H181.818V65H172.388ZM181.818 9.28571V0H210.107V9.28571H181.818Z" fill="#DCDCDC"/>
<path d="M229.851 65V55.7143H267.57V65H229.851ZM267.57 55.7143V37.1429H277V55.7143H267.57ZM239.281 37.1429V27.8571H267.57V37.1429H239.281ZM229.851 27.8571V9.28571H239.281V27.8571H229.851ZM239.281 9.28571V0H277V9.28571H239.281Z" fill="#DCDCDC"/>
</svg>
